server/MyVcdvcd/dump.vcd
$date
   Sun Mar 17 09:57:46 2024
$end
$version
  2017.2
$end
$timescale
  1ps
$end
$scope module tb $end
$var reg 1 ! CLK $end
$var reg 1 " RST $end
$var wire 8 # LED [7:0] $end
$var integer 32 $ Dout_File $end
$var reg 10 % cnt [9:0] $end
$var reg 10 & cnt_1 [9:0] $end
$var parameter 32 ' PERIOD [31:0] $end
$scope module u0 $end
$var wire 1 ( clk $end
$var wire 1 ) rst_n $end
$var wire 8 # led [7:0] $end
$var reg 24 * cnt_reg [23:0] $end
$var reg 8 + light_reg [7:0] $end
$upscope $end
$upscope $end
$enddefinitions $end
#0
$dumpvars
0!
0"
bx #
b0 $
b0 %
b0 &
b1010 '
0(
0)
bx *
bx +
$end
#5000
1!
b1 #
1(
b0 *
b1 +
#10000
0!
0(
#15000
1!
1(
b0 *
b1 +
#20000
0!
0(
#25000
1!
1(
b0 *
b1 +
#30000
0!
0(
#35000
1!
1(
b0 *
b1 +
#40000
0!
0(
#45000
1!
1(
b0 *
b1 +
#50000
0!
0(
#55000
1!
1(
b0 *
b1 +
#60000
0!
0(
#65000
1!
1(
b0 *
b1 +
#70000
0!
0(
#75000
1!
1(
b0 *
b1 +
#80000
0!
0(
#85000
1!
1(
b0 *
b1 +
#90000
0!
0(
#95000
1!
1(
b0 *
b1 +
#100000
0!
1"
0(
1)
#105000
1!
b1 %
1(
b1 *
#110000
0!
0(
#115000
1!
b10 %
1(
b10 *
#120000
0!
0(
#125000
1!
b11 %
1(
b11 *
#130000
0!
0(
#135000
1!
b100 %
1(
b100 *
#140000
0!
0(
#145000
1!
b101 %
1(
b101 *
#150000
0!
0(
#155000
1!
b110 %
1(
b110 *
#160000
0!
0(
#165000
1!
b111 %
1(
b111 *
#170000
0!
0(
#175000
1!
b1000 %
1(
b1000 *
#180000
0!
0(
#185000
1!
b1001 %
1(
b1001 *
#190000
0!
0(
#195000
1!
b1010 %
1(
b1010 *
#200000
0!
0"
0(
0)
#205000
1!
1(
b0 *
b1 +
#210000
0!
0(
#215000
1!
1(
b0 *
b1 +
#220000
0!
0(
#225000
1!
1(
b0 *
b1 +
#230000
0!
0(
#235000
1!
1(
b0 *
b1 +
#240000
0!
0(
#245000
1!
1(
b0 *
b1 +
#250000
0!
0(
#255000
1!
1(
b0 *
b1 +
#260000
0!
0(
#265000
1!
1(
b0 *
b1 +
#270000
0!
0(
#275000
1!
1(
b0 *
b1 +
#280000
0!
0(
#285000
1!
1(
b0 *
b1 +
#290000
0!
0(
#295000
1!
1(
b0 *
b1 +
#300000
0!
1"
0(
1)
#305000
1!
b1011 %
1(
b1 *
#310000
0!
0(
#315000
1!
b1100 %
1(
b10 *
#320000
0!
0(
#325000
1!
b1101 %
1(
b11 *
#330000
0!
0(
#335000
1!
b1110 %
1(
b100 *
#340000
0!
0(
#345000
1!
b1111 %
1(
b101 *
#350000
0!
0(
#355000
1!
b10000 %
1(
b110 *
#360000
0!
0(
#365000
1!
b10001 %
1(
b111 *
#370000
0!
0(
#375000
1!
b10010 %
1(
b1000 *
#380000
0!
0(
#385000
1!
b10011 %
1(
b1001 *
#390000
0!
0(
#395000
1!
b10100 %
1(
b1010 *
#400000
0!
0(
#405000
1!
b10101 %
1(
b1011 *
#410000
0!
0(
#415000
1!
b10110 %
1(
b1100 *
#420000
0!
0(
#425000
1!
b10111 %
1(
b1101 *
#430000
0!
0(
#435000
1!
b11000 %
1(
b1110 *
#440000
0!
0(
#445000
1!
b11001 %
1(
b1111 *
#450000
0!
0(
#455000
1!
b11010 %
1(
b10000 *
#460000
0!
0(
#465000
1!
b11011 %
1(
b10001 *
#470000
0!
0(
#475000
1!
b11100 %
1(
b10010 *
#480000
0!
0(
#485000
1!
b11101 %
1(
b10011 *
#490000
0!
0(
#495000
1!
b11110 %
1(
b10100 *
#500000
0!
0(
#505000
1!
b11111 %
1(
b10101 *
#510000
0!
0(
#515000
1!
b100000 %
1(
b10110 *
#520000
0!
0(
#525000
1!
b100001 %
1(
b10111 *
#530000
0!
0(
#535000
1!
b100010 %
1(
b11000 *
#540000
0!
0(
#545000
1!
b100011 %
1(
b11001 *
#550000
0!
0(
#555000
1!
b100100 %
1(
b11010 *
#560000
0!
0(
#565000
1!
b100101 %
1(
b11011 *
#570000
0!
0(
#575000
1!
b100110 %
1(
b11100 *
#580000
0!
0(
#585000
1!
b100111 %
1(
b11101 *
#590000
0!
0(
#595000
1!
b101000 %
1(
b11110 *
#600000
0!
0(
#605000
1!
b101001 %
1(
b11111 *
#610000
0!
0(
#615000
1!
b101010 %
1(
b100000 *
#620000
0!
0(
#625000
1!
b101011 %
1(
b100001 *
#630000
0!
0(
#635000
1!
b101100 %
1(
b100010 *
#640000
0!
0(
#645000
1!
b101101 %
1(
b100011 *
#650000
0!
0(
#655000
1!
b101110 %
1(
b100100 *
#660000
0!
0(
#665000
1!
b101111 %
1(
b100101 *
#670000
0!
0(
#675000
1!
b110000 %
1(
b100110 *
#680000
0!
0(
#685000
1!
b110001 %
1(
b100111 *
#690000
0!
0(
#695000
1!
b110010 %
1(
b101000 *
#700000
0!
0(
#705000
1!
b110011 %
1(
b101001 *
#710000
0!
0(
#715000
1!
b110100 %
1(
b101010 *
#720000
0!
0(
#725000
1!
b110101 %
1(
b101011 *
#730000
0!
0(
#735000
1!
b110110 %
1(
b101100 *
#740000
0!
0(
#745000
1!
b110111 %
1(
b101101 *
#750000
0!
0(
#755000
1!
b111000 %
1(
b101110 *
#760000
0!
0(
#765000
1!
b111001 %
1(
b101111 *
#770000
0!
0(
#775000
1!
b111010 %
1(
b110000 *
#780000
0!
0(
#785000
1!
b111011 %
1(
b110001 *
#790000
0!
0(
#795000
1!
b111100 %
1(
b110010 *
#800000
0!
0(
#805000
1!
b111101 %
1(
b110011 *
#810000
0!
0(
#815000
1!
b111110 %
1(
b110100 *
#820000
0!
0(
#825000
1!
b111111 %
1(
b110101 *
#830000
0!
0(
#835000
1!
b1000000 %
1(
b110110 *
#840000
0!
0(
#845000
1!
b1000001 %
1(
b110111 *
#850000
0!
0(
#855000
1!
b1000010 %
1(
b111000 *
#860000
0!
0(
#865000
1!
b1000011 %
1(
b111001 *
#870000
0!
0(
#875000
1!
b1000100 %
1(
b111010 *
#880000
0!
0(
#885000
1!
b1000101 %
1(
b111011 *
#890000
0!
0(
#895000
1!
b1000110 %
1(
b111100 *
#900000
0!
0(
#905000
1!
b1000111 %
1(
b111101 *
#910000
0!
0(
#915000
1!
b1001000 %
1(
b111110 *
#920000
0!
0(
#925000
1!
b1001001 %
1(
b111111 *
#930000
0!
0(
#935000
1!
b1001010 %
1(
b1000000 *
#940000
0!
0(
#945000
1!
b1001011 %
1(
b1000001 *
#950000
0!
0(
#955000
1!
b1001100 %
1(
b1000010 *
#960000
0!
0(
#965000
1!
b1001101 %
1(
b1000011 *
#970000
0!
0(
#975000
1!
b1001110 %
1(
b1000100 *
#980000
0!
0(
#985000
1!
b1001111 %
1(
b1000101 *
#990000
0!
0(
#995000
1!
b1010000 %
1(
b1000110 *
